{
  "$schema": "./node_modules/@angular/cli/lib/config/schema.json",
  "version": 1,
  "newProjectRoot": "projects",
  "projects": {
    "angular-multi-view": {
      "projectType": "application",
      "schematics": {},
      "root": "",
      "sourceRoot": "src",
      "prefix": "app",
      "architect": {
        "build": {
          "builder": "@angular-devkit/build-angular:browser",
          "options": {
            "outputPath": "dist/browser",
            "index": "src/index.html",
            "main": "src/main.ts",
            "polyfills": "src/polyfills.ts",
            "tsConfig": "tsconfig.app.json",
            "assets": [
              "src/favicon.ico",
              "src/assets",
              "src/assets/pngs/*"
            ],
            "styles": [
              "src/styles.scss"
            ],
            "scripts": []
          },
          "configurations": {
            "production": {
              "fileReplacements": [
                {
                  "replace": "src/environments/environment.ts",
                  "with": "src/environments/environment.prod.ts"
                }
              ],
              "optimization": true,
              "outputHashing": "all",
              "sourceMap": false,
              "extractCss": true,
              "namedChunks": false,
              "aot": true,
              "extractLicenses": true,
              "vendorChunk": false,
              "buildOptimizer": true,
              "budgets": [
                {
                  "type": "initial",
                  "maximumWarning": "2mb",
                  "maximumError": "5mb"
                },
                {
                  "type": "anyComponentStyle",
                  "maximumWarning": "6kb",
                  "maximumError": "10kb"
                }
              ]
            }
          }
        },
        "serve": {
          "builder": "@angular-devkit/build-angular:dev-server",
          "options": {
            "browserTarget": "angular-multi-view:build"
          },
          "configurations": {
            "production": {
              "browserTarget": "angular-multi-view:build:production"
            }
          }
        },
        "extract-i18n": {
          "builder": "@angular-devkit/build-angular:extract-i18n",
          "options": {
            "browserTarget": "angular-multi-view:build"
          }
        },
        "test": {
          "builder": "@angular-devkit/build-angular:karma",
          "options": {
            "main": "src/test.ts",
            "polyfills": "src/polyfills.ts",
            "tsConfig": "tsconfig.spec.json",
            "karmaConfig": "karma.conf.js",
            "assets": [
              "src/favicon.ico",
              "src/assets",
              "src/assets/pngs/*"
            ],
            "styles": [
              "src/styles.scss"
            ],
            "scripts": []
          }
        },
        "lint": {
          "builder": "@angular-devkit/build-angular:tslint",
          "options": {
            "tsConfig": [
              "tsconfig.app.json",
              "tsconfig.spec.json",
              "e2e/tsconfig.json"
            ],
            "exclude": [
              "**/node_modules/**"
            ]
          }
        },
        "e2e": {
          "builder": "@angular-devkit/build-angular:protractor",
          "options": {
            "protractorConfig": "e2e/protractor.conf.js",
            "devServerTarget": "angular-multi-view:serve"
          },
          "configurations": {
            "production": {
              "devServerTarget": "angular-multi-view:serve:production"
            }
          }
        },
        "server": {
          "builder": "@angular-devkit/build-angular:server",
          "options": {
            "outputPath": "dist/server",
            "main": "server.ts",
            "tsConfig": "tsconfig.server.json"
          },
          "configurations": {
            "production": {
              "outputHashing": "media",
              "fileReplacements": [
                {
                  "replace": "src/environments/environment.ts",
                  "with": "src/environments/environment.prod.ts"
                }
              ],
              "sourceMap": false,
              "optimization": true
            }
          }
        },
        "serve-ssr": {
          "builder": "@nguniversal/builders:ssr-dev-server",
          "options": {
            "browserTarget": "angular-multi-view:build",
            "serverTarget": "angular-multi-view:server"
          },
          "configurations": {
            "production": {
              "browserTarget": "angular-multi-view:build:production",
              "serverTarget": "angular-multi-view:server:production"
            }
          }
        },
        "prerender": {
          "builder": "@nguniversal/builders:prerender",
          "options": {
            "browserTarget": "angular-multi-view:build:production",
            "serverTarget": "angular-multi-view:server:production",
            "routes": [
              "/"
            ]
          },
          "configurations": {
            "production": {}
          }
        }
      }
    }
  },
  "defaultProject": "angular-multi-view",
  "cli": {
    "analytics": "4a29ee0e-17d9-491e-87bf-d3618d1e7f0d"
  }
}